{"failedCount":0,"prefixedPath":"src\/test\/java\/Tests\/Get.feature","packageQualifiedName":"src.test.java.Tests.Get","loopIndex":-1,"relativePath":"src\/test\/java\/Tests\/Get.feature","scenarioResults":[{"sectionIndex":0,"stepResults":[{"result":{"nanos":59006200,"millis":59.0062,"status":"passed"},"step":{"line":3,"prefix":"Given","index":0,"text":"url 'https:\/\/reqres.in\/api\/users?page=2'"}},{"result":{"nanos":747097000,"millis":747.097,"status":"passed"},"step":{"line":4,"prefix":"When","index":1,"text":"method GET"},"stepLog":"01:57:26.654 request:\n1 > GET https:\/\/reqres.in\/api\/users?page=2\n1 > Host: reqres.in\n1 > Connection: Keep-Alive\n1 > User-Agent: Apache-HttpClient\/4.5.13 (Java\/18.0.1.1)\n1 > Accept-Encoding: gzip,deflate\n\n\n01:57:27.206 response time in milliseconds: 551\n1 < 200\n1 < Date: Wed, 08 Jun 2022 22:57:27 GMT\n1 < Content-Type: application\/json; charset=utf-8\n1 < Transfer-Encoding: chunked\n1 < Connection: keep-alive\n1 < X-Powered-By: Express\n1 < Access-Control-Allow-Origin: *\n1 < Etag: W\/\"406-ut0vzoCuidvyMf8arZpMpJ6ZRDw\"\n1 < Via: 1.1 vegur\n1 < Cache-Control: max-age=14400\n1 < CF-Cache-Status: HIT\n1 < Age: 7123\n1 < Expect-CT: max-age=604800, report-uri=\"https:\/\/report-uri.cloudflare.com\/cdn-cgi\/beacon\/expect-ct\"\n1 < Report-To: {\"endpoints\":[{\"url\":\"https:\\\/\\\/a.nel.cloudflare.com\\\/report\\\/v3?s=5i8%2F%2B68RX1MqLb76GsFiDRDHfBRrf7O4ha1QGv0LaDWv6MddSvqYknPYyN2i1KjACN%2Fbco0wNKB%2FtKyUvy8Y4vCCEUqq8e9DARpDORHWmpd%2B2b%2FKVcN2EfSePSU%3D\"}],\"group\":\"cf-nel\",\"max_age\":604800}\n1 < NEL: {\"success_fraction\":0,\"report_to\":\"cf-nel\",\"max_age\":604800}\n1 < Vary: Accept-Encoding\n1 < Server: cloudflare\n1 < CF-RAY: 71853a013cb07705-LHR\n1 < alt-svc: h3=\":443\"; ma=86400, h3-29=\":443\"; ma=86400\n{\"page\":2,\"per_page\":6,\"total\":12,\"total_pages\":2,\"data\":[{\"id\":7,\"email\":\"michael.lawson@reqres.in\",\"first_name\":\"Michael\",\"last_name\":\"Lawson\",\"avatar\":\"https:\/\/reqres.in\/img\/faces\/7-image.jpg\"},{\"id\":8,\"email\":\"lindsay.ferguson@reqres.in\",\"first_name\":\"Lindsay\",\"last_name\":\"Ferguson\",\"avatar\":\"https:\/\/reqres.in\/img\/faces\/8-image.jpg\"},{\"id\":9,\"email\":\"tobias.funke@reqres.in\",\"first_name\":\"Tobias\",\"last_name\":\"Funke\",\"avatar\":\"https:\/\/reqres.in\/img\/faces\/9-image.jpg\"},{\"id\":10,\"email\":\"byron.fields@reqres.in\",\"first_name\":\"Byron\",\"last_name\":\"Fields\",\"avatar\":\"https:\/\/reqres.in\/img\/faces\/10-image.jpg\"},{\"id\":11,\"email\":\"george.edwards@reqres.in\",\"first_name\":\"George\",\"last_name\":\"Edwards\",\"avatar\":\"https:\/\/reqres.in\/img\/faces\/11-image.jpg\"},{\"id\":12,\"email\":\"rachel.howell@reqres.in\",\"first_name\":\"Rachel\",\"last_name\":\"Howell\",\"avatar\":\"https:\/\/reqres.in\/img\/faces\/12-image.jpg\"}],\"support\":{\"url\":\"https:\/\/reqres.in\/#support-heading\",\"text\":\"To keep ReqRes free, contributions towards server costs are appreciated!\"}}\n\n"},{"result":{"nanos":2268300,"millis":2.2683,"status":"passed"},"step":{"line":5,"prefix":"Then","index":2,"text":"status 200"}},{"result":{"nanos":47881300,"millis":47.8813,"status":"passed"},"step":{"line":6,"prefix":"And","index":3,"text":"print response"},"stepLog":"01:57:27.277 [print] {\n  \"page\": 2,\n  \"per_page\": 6,\n  \"total\": 12,\n  \"total_pages\": 2,\n  \"data\": [\n    {\n      \"id\": 7,\n      \"email\": \"michael.lawson@reqres.in\",\n      \"first_name\": \"Michael\",\n      \"last_name\": \"Lawson\",\n      \"avatar\": \"https:\/\/reqres.in\/img\/faces\/7-image.jpg\"\n    },\n    {\n      \"id\": 8,\n      \"email\": \"lindsay.ferguson@reqres.in\",\n      \"first_name\": \"Lindsay\",\n      \"last_name\": \"Ferguson\",\n      \"avatar\": \"https:\/\/reqres.in\/img\/faces\/8-image.jpg\"\n    },\n    {\n      \"id\": 9,\n      \"email\": \"tobias.funke@reqres.in\",\n      \"first_name\": \"Tobias\",\n      \"last_name\": \"Funke\",\n      \"avatar\": \"https:\/\/reqres.in\/img\/faces\/9-image.jpg\"\n    },\n    {\n      \"id\": 10,\n      \"email\": \"byron.fields@reqres.in\",\n      \"first_name\": \"Byron\",\n      \"last_name\": \"Fields\",\n      \"avatar\": \"https:\/\/reqres.in\/img\/faces\/10-image.jpg\"\n    },\n    {\n      \"id\": 11,\n      \"email\": \"george.edwards@reqres.in\",\n      \"first_name\": \"George\",\n      \"last_name\": \"Edwards\",\n      \"avatar\": \"https:\/\/reqres.in\/img\/faces\/11-image.jpg\"\n    },\n    {\n      \"id\": 12,\n      \"email\": \"rachel.howell@reqres.in\",\n      \"first_name\": \"Rachel\",\n      \"last_name\": \"Howell\",\n      \"avatar\": \"https:\/\/reqres.in\/img\/faces\/12-image.jpg\"\n    }\n  ],\n  \"support\": {\n    \"url\": \"https:\/\/reqres.in\/#support-heading\",\n    \"text\": \"To keep ReqRes free, contributions towards server costs are appreciated!\"\n  }\n}\n \n"},{"result":{"nanos":801200,"millis":0.8012,"status":"passed"},"step":{"line":7,"prefix":"And","index":4,"text":"print responseStatus"},"stepLog":"01:57:27.278 [print] 200 \n"},{"result":{"nanos":533500,"millis":0.5335,"status":"passed"},"step":{"line":8,"prefix":"And","index":5,"text":"print responseTime"},"stepLog":"01:57:27.278 [print] 551 \n"},{"result":{"nanos":886700,"millis":0.8867,"status":"passed"},"step":{"line":9,"prefix":"And","index":6,"text":"print responseHeaders"},"stepLog":"01:57:27.280 [print] {\n  \"Date\": [\n    \"Wed, 08 Jun 2022 22:57:27 GMT\"\n  ],\n  \"Content-Type\": [\n    \"application\/json; charset=utf-8\"\n  ],\n  \"Transfer-Encoding\": [\n    \"chunked\"\n  ],\n  \"Connection\": [\n    \"keep-alive\"\n  ],\n  \"X-Powered-By\": [\n    \"Express\"\n  ],\n  \"Access-Control-Allow-Origin\": [\n    \"*\"\n  ],\n  \"Etag\": [\n    \"W\/\\\"406-ut0vzoCuidvyMf8arZpMpJ6ZRDw\\\"\"\n  ],\n  \"Via\": [\n    \"1.1 vegur\"\n  ],\n  \"Cache-Control\": [\n    \"max-age=14400\"\n  ],\n  \"CF-Cache-Status\": [\n    \"HIT\"\n  ],\n  \"Age\": [\n    \"7123\"\n  ],\n  \"Expect-CT\": [\n    \"max-age=604800, report-uri=\\\"https:\/\/report-uri.cloudflare.com\/cdn-cgi\/beacon\/expect-ct\\\"\"\n  ],\n  \"Report-To\": [\n    \"{\\\"endpoints\\\":[{\\\"url\\\":\\\"https:\\\\\/\\\\\/a.nel.cloudflare.com\\\\\/report\\\\\/v3?s=5i8%2F%2B68RX1MqLb76GsFiDRDHfBRrf7O4ha1QGv0LaDWv6MddSvqYknPYyN2i1KjACN%2Fbco0wNKB%2FtKyUvy8Y4vCCEUqq8e9DARpDORHWmpd%2B2b%2FKVcN2EfSePSU%3D\\\"}],\\\"group\\\":\\\"cf-nel\\\",\\\"max_age\\\":604800}\"\n  ],\n  \"NEL\": [\n    \"{\\\"success_fraction\\\":0,\\\"report_to\\\":\\\"cf-nel\\\",\\\"max_age\\\":604800}\"\n  ],\n  \"Vary\": [\n    \"Accept-Encoding\"\n  ],\n  \"Server\": [\n    \"cloudflare\"\n  ],\n  \"CF-RAY\": [\n    \"71853a013cb07705-LHR\"\n  ],\n  \"alt-svc\": [\n    \"h3=\\\":443\\\"; ma=86400, h3-29=\\\":443\\\"; ma=86400\"\n  ]\n}\n \n"},{"result":{"nanos":831400,"millis":0.8314,"status":"passed"},"step":{"line":10,"prefix":"And","index":7,"text":"print responseCookies"},"stepLog":"01:57:27.280 [print] null \n"}],"executorName":"main","line":2,"name":"Get Test 1","description":"","durationMillis":859.3056,"startTime":1654729046412,"failed":false,"refId":"[1:2]","endTime":1654729047280,"exampleIndex":-1}],"callDepth":0,"name":"Get API test","description":"","resultDate":"2022-06-09 01:57:27 ÖÖ","durationMillis":859.3056,"passedCount":1}