{"failedCount":0,"prefixedPath":"src\/test\/java\/Tests\/Get.feature","packageQualifiedName":"src.test.java.Tests.Get","loopIndex":-1,"relativePath":"src\/test\/java\/Tests\/Get.feature","scenarioResults":[{"sectionIndex":0,"stepResults":[{"result":{"nanos":56479600,"millis":56.4796,"status":"passed"},"step":{"background":true,"line":4,"prefix":"*","index":0,"text":"url 'https:\/\/reqres.in\/api'"}},{"result":{"nanos":1406500,"millis":1.4065,"status":"passed"},"step":{"background":true,"line":5,"prefix":"*","index":1,"text":"header Accept = 'application\/json'"}},{"result":{"nanos":407800,"millis":0.4078,"status":"passed"},"step":{"line":9,"prefix":"Given","index":0,"text":"url 'https:\/\/reqres.in\/api\/users?page=2'"}},{"result":{"nanos":611106100,"millis":611.1061,"status":"passed"},"step":{"line":10,"prefix":"When","index":1,"text":"method GET"},"stepLog":"02:13:20.609 request:\n1 > GET https:\/\/reqres.in\/api\/users?page=2\n1 > Accept: application\/json\n1 > Host: reqres.in\n1 > Connection: Keep-Alive\n1 > User-Agent: Apache-HttpClient\/4.5.13 (Java\/18.0.1.1)\n1 > Accept-Encoding: gzip,deflate\n\n\n02:13:21.026 response time in milliseconds: 415\n1 < 200\n1 < Date: Wed, 08 Jun 2022 23:13:21 GMT\n1 < Content-Type: application\/json; charset=utf-8\n1 < Transfer-Encoding: chunked\n1 < Connection: keep-alive\n1 < X-Powered-By: Express\n1 < Access-Control-Allow-Origin: *\n1 < Etag: W\/\"406-ut0vzoCuidvyMf8arZpMpJ6ZRDw\"\n1 < Via: 1.1 vegur\n1 < Cache-Control: max-age=14400\n1 < CF-Cache-Status: HIT\n1 < Age: 860\n1 < Expect-CT: max-age=604800, report-uri=\"https:\/\/report-uri.cloudflare.com\/cdn-cgi\/beacon\/expect-ct\"\n1 < Report-To: {\"endpoints\":[{\"url\":\"https:\\\/\\\/a.nel.cloudflare.com\\\/report\\\/v3?s=NfyUS%2FvARUu5UVmc69GuigkKkz%2FkSODJ6N0pCTB%2FH%2B7ekvYHrkjVtTJXFaYYt4QdrXJHw%2FGfIy4sNGHFGp9%2B3YFz6g3bOXg18oUf1NwirvZtCWA29n%2BKIiR%2BVDg%3D\"}],\"group\":\"cf-nel\",\"max_age\":604800}\n1 < NEL: {\"success_fraction\":0,\"report_to\":\"cf-nel\",\"max_age\":604800}\n1 < Vary: Accept-Encoding\n1 < Server: cloudflare\n1 < CF-RAY: 7185514a9d8a891e-LHR\n1 < alt-svc: h3=\":443\"; ma=86400, h3-29=\":443\"; ma=86400\n{\"page\":2,\"per_page\":6,\"total\":12,\"total_pages\":2,\"data\":[{\"id\":7,\"email\":\"michael.lawson@reqres.in\",\"first_name\":\"Michael\",\"last_name\":\"Lawson\",\"avatar\":\"https:\/\/reqres.in\/img\/faces\/7-image.jpg\"},{\"id\":8,\"email\":\"lindsay.ferguson@reqres.in\",\"first_name\":\"Lindsay\",\"last_name\":\"Ferguson\",\"avatar\":\"https:\/\/reqres.in\/img\/faces\/8-image.jpg\"},{\"id\":9,\"email\":\"tobias.funke@reqres.in\",\"first_name\":\"Tobias\",\"last_name\":\"Funke\",\"avatar\":\"https:\/\/reqres.in\/img\/faces\/9-image.jpg\"},{\"id\":10,\"email\":\"byron.fields@reqres.in\",\"first_name\":\"Byron\",\"last_name\":\"Fields\",\"avatar\":\"https:\/\/reqres.in\/img\/faces\/10-image.jpg\"},{\"id\":11,\"email\":\"george.edwards@reqres.in\",\"first_name\":\"George\",\"last_name\":\"Edwards\",\"avatar\":\"https:\/\/reqres.in\/img\/faces\/11-image.jpg\"},{\"id\":12,\"email\":\"rachel.howell@reqres.in\",\"first_name\":\"Rachel\",\"last_name\":\"Howell\",\"avatar\":\"https:\/\/reqres.in\/img\/faces\/12-image.jpg\"}],\"support\":{\"url\":\"https:\/\/reqres.in\/#support-heading\",\"text\":\"To keep ReqRes free, contributions towards server costs are appreciated!\"}}\n\n"},{"result":{"nanos":2051200,"millis":2.0512,"status":"passed"},"step":{"line":11,"prefix":"Then","index":2,"text":"status 200"}},{"result":{"nanos":44006700,"millis":44.0067,"status":"passed"},"step":{"line":12,"prefix":"And","index":3,"text":"print response"},"stepLog":"02:13:21.090 [print] {\n  \"page\": 2,\n  \"per_page\": 6,\n  \"total\": 12,\n  \"total_pages\": 2,\n  \"data\": [\n    {\n      \"id\": 7,\n      \"email\": \"michael.lawson@reqres.in\",\n      \"first_name\": \"Michael\",\n      \"last_name\": \"Lawson\",\n      \"avatar\": \"https:\/\/reqres.in\/img\/faces\/7-image.jpg\"\n    },\n    {\n      \"id\": 8,\n      \"email\": \"lindsay.ferguson@reqres.in\",\n      \"first_name\": \"Lindsay\",\n      \"last_name\": \"Ferguson\",\n      \"avatar\": \"https:\/\/reqres.in\/img\/faces\/8-image.jpg\"\n    },\n    {\n      \"id\": 9,\n      \"email\": \"tobias.funke@reqres.in\",\n      \"first_name\": \"Tobias\",\n      \"last_name\": \"Funke\",\n      \"avatar\": \"https:\/\/reqres.in\/img\/faces\/9-image.jpg\"\n    },\n    {\n      \"id\": 10,\n      \"email\": \"byron.fields@reqres.in\",\n      \"first_name\": \"Byron\",\n      \"last_name\": \"Fields\",\n      \"avatar\": \"https:\/\/reqres.in\/img\/faces\/10-image.jpg\"\n    },\n    {\n      \"id\": 11,\n      \"email\": \"george.edwards@reqres.in\",\n      \"first_name\": \"George\",\n      \"last_name\": \"Edwards\",\n      \"avatar\": \"https:\/\/reqres.in\/img\/faces\/11-image.jpg\"\n    },\n    {\n      \"id\": 12,\n      \"email\": \"rachel.howell@reqres.in\",\n      \"first_name\": \"Rachel\",\n      \"last_name\": \"Howell\",\n      \"avatar\": \"https:\/\/reqres.in\/img\/faces\/12-image.jpg\"\n    }\n  ],\n  \"support\": {\n    \"url\": \"https:\/\/reqres.in\/#support-heading\",\n    \"text\": \"To keep ReqRes free, contributions towards server costs are appreciated!\"\n  }\n}\n \n"},{"result":{"nanos":856600,"millis":0.8566,"status":"passed"},"step":{"line":13,"prefix":"And","index":4,"text":"print responseStatus"},"stepLog":"02:13:21.092 [print] 200 \n"},{"result":{"nanos":515900,"millis":0.5159,"status":"passed"},"step":{"line":14,"prefix":"And","index":5,"text":"print responseTime"},"stepLog":"02:13:21.092 [print] 415 \n"},{"result":{"nanos":724700,"millis":0.7247,"status":"passed"},"step":{"line":15,"prefix":"And","index":6,"text":"print responseHeaders"},"stepLog":"02:13:21.093 [print] {\n  \"Date\": [\n    \"Wed, 08 Jun 2022 23:13:21 GMT\"\n  ],\n  \"Content-Type\": [\n    \"application\/json; charset=utf-8\"\n  ],\n  \"Transfer-Encoding\": [\n    \"chunked\"\n  ],\n  \"Connection\": [\n    \"keep-alive\"\n  ],\n  \"X-Powered-By\": [\n    \"Express\"\n  ],\n  \"Access-Control-Allow-Origin\": [\n    \"*\"\n  ],\n  \"Etag\": [\n    \"W\/\\\"406-ut0vzoCuidvyMf8arZpMpJ6ZRDw\\\"\"\n  ],\n  \"Via\": [\n    \"1.1 vegur\"\n  ],\n  \"Cache-Control\": [\n    \"max-age=14400\"\n  ],\n  \"CF-Cache-Status\": [\n    \"HIT\"\n  ],\n  \"Age\": [\n    \"860\"\n  ],\n  \"Expect-CT\": [\n    \"max-age=604800, report-uri=\\\"https:\/\/report-uri.cloudflare.com\/cdn-cgi\/beacon\/expect-ct\\\"\"\n  ],\n  \"Report-To\": [\n    \"{\\\"endpoints\\\":[{\\\"url\\\":\\\"https:\\\\\/\\\\\/a.nel.cloudflare.com\\\\\/report\\\\\/v3?s=NfyUS%2FvARUu5UVmc69GuigkKkz%2FkSODJ6N0pCTB%2FH%2B7ekvYHrkjVtTJXFaYYt4QdrXJHw%2FGfIy4sNGHFGp9%2B3YFz6g3bOXg18oUf1NwirvZtCWA29n%2BKIiR%2BVDg%3D\\\"}],\\\"group\\\":\\\"cf-nel\\\",\\\"max_age\\\":604800}\"\n  ],\n  \"NEL\": [\n    \"{\\\"success_fraction\\\":0,\\\"report_to\\\":\\\"cf-nel\\\",\\\"max_age\\\":604800}\"\n  ],\n  \"Vary\": [\n    \"Accept-Encoding\"\n  ],\n  \"Server\": [\n    \"cloudflare\"\n  ],\n  \"CF-RAY\": [\n    \"7185514a9d8a891e-LHR\"\n  ],\n  \"alt-svc\": [\n    \"h3=\\\":443\\\"; ma=86400, h3-29=\\\":443\\\"; ma=86400\"\n  ]\n}\n \n"},{"result":{"nanos":828900,"millis":0.8289,"status":"passed"},"step":{"line":16,"prefix":"And","index":7,"text":"print responseCookies"},"stepLog":"02:13:21.094 [print] null \n"}],"executorName":"main","line":8,"name":"Get Test 1","description":"","durationMillis":718.384,"startTime":1654730000365,"failed":false,"refId":"[1:8]","endTime":1654730001094,"exampleIndex":-1},{"sectionIndex":1,"stepResults":[{"result":{"nanos":220500,"millis":0.2205,"status":"passed"},"step":{"background":true,"line":4,"prefix":"*","index":0,"text":"url 'https:\/\/reqres.in\/api'"}},{"result":{"nanos":119200,"millis":0.1192,"status":"passed"},"step":{"background":true,"line":5,"prefix":"*","index":1,"text":"header Accept = 'application\/json'"}},{"result":{"nanos":366000,"millis":0.366,"status":"passed"},"step":{"line":21,"prefix":"Given","index":0,"text":"path '\/users\/2'"}},{"result":{"nanos":225397900,"millis":225.3979,"status":"passed"},"step":{"line":22,"prefix":"When","index":1,"text":"method GET"},"stepLog":"02:13:21.099 request:\n1 > GET https:\/\/reqres.in\/api\/users\/2\n1 > Accept: application\/json\n1 > Host: reqres.in\n1 > Connection: Keep-Alive\n1 > User-Agent: Apache-HttpClient\/4.5.13 (Java\/18.0.1.1)\n1 > Accept-Encoding: gzip,deflate\n\n\n02:13:21.322 response time in milliseconds: 223\n1 < 200\n1 < Date: Wed, 08 Jun 2022 23:13:21 GMT\n1 < Content-Type: application\/json; charset=utf-8\n1 < Transfer-Encoding: chunked\n1 < Connection: keep-alive\n1 < X-Powered-By: Express\n1 < Access-Control-Allow-Origin: *\n1 < Etag: W\/\"118-pbdwwFo9SKNhD3Lx5iHJyngpq00\"\n1 < Via: 1.1 vegur\n1 < Cache-Control: max-age=14400\n1 < CF-Cache-Status: HIT\n1 < Age: 801\n1 < Expect-CT: max-age=604800, report-uri=\"https:\/\/report-uri.cloudflare.com\/cdn-cgi\/beacon\/expect-ct\"\n1 < Report-To: {\"endpoints\":[{\"url\":\"https:\\\/\\\/a.nel.cloudflare.com\\\/report\\\/v3?s=hJEO0uegRinuxJTOo3k9EXq3ry%2B2Xbm6Xla9knv6NN4%2Fa4ZnmgQ0Wadjm68DFqHEOQf9MKQBCpeDxzFkT13sxOTdqdU6UN3Aq%2BAtn%2F6FQBakPZYQB6HsLnP0k2k%3D\"}],\"group\":\"cf-nel\",\"max_age\":604800}\n1 < NEL: {\"success_fraction\":0,\"report_to\":\"cf-nel\",\"max_age\":604800}\n1 < Vary: Accept-Encoding\n1 < Server: cloudflare\n1 < CF-RAY: 7185514c6c5a772f-LHR\n1 < alt-svc: h3=\":443\"; ma=86400, h3-29=\":443\"; ma=86400\n{\"data\":{\"id\":2,\"email\":\"janet.weaver@reqres.in\",\"first_name\":\"Janet\",\"last_name\":\"Weaver\",\"avatar\":\"https:\/\/reqres.in\/img\/faces\/2-image.jpg\"},\"support\":{\"url\":\"https:\/\/reqres.in\/#support-heading\",\"text\":\"To keep ReqRes free, contributions towards server costs are appreciated!\"}}\n\n"},{"result":{"nanos":10500,"millis":0.0105,"status":"passed"},"step":{"line":23,"prefix":"Then","index":2,"text":"status 200"}},{"result":{"nanos":415000,"millis":0.415,"status":"passed"},"step":{"line":24,"prefix":"And","index":3,"text":"print response"},"stepLog":"02:13:21.323 [print] {\n  \"data\": {\n    \"id\": 2,\n    \"email\": \"janet.weaver@reqres.in\",\n    \"first_name\": \"Janet\",\n    \"last_name\": \"Weaver\",\n    \"avatar\": \"https:\/\/reqres.in\/img\/faces\/2-image.jpg\"\n  },\n  \"support\": {\n    \"url\": \"https:\/\/reqres.in\/#support-heading\",\n    \"text\": \"To keep ReqRes free, contributions towards server costs are appreciated!\"\n  }\n}\n \n"},{"result":{"nanos":218200,"millis":0.2182,"status":"passed"},"step":{"line":25,"prefix":"And","index":4,"text":"print responseStatus"},"stepLog":"02:13:21.324 [print] 200 \n"},{"result":{"nanos":150800,"millis":0.1508,"status":"passed"},"step":{"line":26,"prefix":"And","index":5,"text":"print responseTime"},"stepLog":"02:13:21.324 [print] 223 \n"},{"result":{"nanos":446900,"millis":0.4469,"status":"passed"},"step":{"line":27,"prefix":"And","index":6,"text":"print responseHeaders"},"stepLog":"02:13:21.324 [print] {\n  \"Date\": [\n    \"Wed, 08 Jun 2022 23:13:21 GMT\"\n  ],\n  \"Content-Type\": [\n    \"application\/json; charset=utf-8\"\n  ],\n  \"Transfer-Encoding\": [\n    \"chunked\"\n  ],\n  \"Connection\": [\n    \"keep-alive\"\n  ],\n  \"X-Powered-By\": [\n    \"Express\"\n  ],\n  \"Access-Control-Allow-Origin\": [\n    \"*\"\n  ],\n  \"Etag\": [\n    \"W\/\\\"118-pbdwwFo9SKNhD3Lx5iHJyngpq00\\\"\"\n  ],\n  \"Via\": [\n    \"1.1 vegur\"\n  ],\n  \"Cache-Control\": [\n    \"max-age=14400\"\n  ],\n  \"CF-Cache-Status\": [\n    \"HIT\"\n  ],\n  \"Age\": [\n    \"801\"\n  ],\n  \"Expect-CT\": [\n    \"max-age=604800, report-uri=\\\"https:\/\/report-uri.cloudflare.com\/cdn-cgi\/beacon\/expect-ct\\\"\"\n  ],\n  \"Report-To\": [\n    \"{\\\"endpoints\\\":[{\\\"url\\\":\\\"https:\\\\\/\\\\\/a.nel.cloudflare.com\\\\\/report\\\\\/v3?s=hJEO0uegRinuxJTOo3k9EXq3ry%2B2Xbm6Xla9knv6NN4%2Fa4ZnmgQ0Wadjm68DFqHEOQf9MKQBCpeDxzFkT13sxOTdqdU6UN3Aq%2BAtn%2F6FQBakPZYQB6HsLnP0k2k%3D\\\"}],\\\"group\\\":\\\"cf-nel\\\",\\\"max_age\\\":604800}\"\n  ],\n  \"NEL\": [\n    \"{\\\"success_fraction\\\":0,\\\"report_to\\\":\\\"cf-nel\\\",\\\"max_age\\\":604800}\"\n  ],\n  \"Vary\": [\n    \"Accept-Encoding\"\n  ],\n  \"Server\": [\n    \"cloudflare\"\n  ],\n  \"CF-RAY\": [\n    \"7185514c6c5a772f-LHR\"\n  ],\n  \"alt-svc\": [\n    \"h3=\\\":443\\\"; ma=86400, h3-29=\\\":443\\\"; ma=86400\"\n  ]\n}\n \n"},{"result":{"nanos":218100,"millis":0.2181,"status":"passed"},"step":{"line":28,"prefix":"And","index":7,"text":"print responseCookies"},"stepLog":"02:13:21.325 [print] null \n"}],"executorName":"main","line":20,"name":"Get Test 2","description":"","durationMillis":227.5631,"startTime":1654730001097,"failed":false,"refId":"[2:20]","endTime":1654730001325,"exampleIndex":-1},{"sectionIndex":2,"stepResults":[{"result":{"nanos":178800,"millis":0.1788,"status":"passed"},"step":{"background":true,"line":4,"prefix":"*","index":0,"text":"url 'https:\/\/reqres.in\/api'"}},{"result":{"nanos":112100,"millis":0.1121,"status":"passed"},"step":{"background":true,"line":5,"prefix":"*","index":1,"text":"header Accept = 'application\/json'"}},{"result":{"nanos":258400,"millis":0.2584,"status":"passed"},"step":{"line":32,"prefix":"Given","index":0,"text":"path '\/users'"}},{"result":{"nanos":900100,"millis":0.9001,"status":"passed"},"step":{"line":33,"prefix":"And","index":1,"text":"param page = 2"}},{"result":{"nanos":216809000,"millis":216.809,"status":"passed"},"step":{"line":34,"prefix":"When","index":2,"text":"method GET"},"stepLog":"02:13:21.331 request:\n1 > GET https:\/\/reqres.in\/api\/users?page=2\n1 > Accept: application\/json\n1 > Host: reqres.in\n1 > Connection: Keep-Alive\n1 > User-Agent: Apache-HttpClient\/4.5.13 (Java\/18.0.1.1)\n1 > Accept-Encoding: gzip,deflate\n\n\n02:13:21.546 response time in milliseconds: 214\n1 < 200\n1 < Date: Wed, 08 Jun 2022 23:13:21 GMT\n1 < Content-Type: application\/json; charset=utf-8\n1 < Transfer-Encoding: chunked\n1 < Connection: keep-alive\n1 < X-Powered-By: Express\n1 < Access-Control-Allow-Origin: *\n1 < Etag: W\/\"406-ut0vzoCuidvyMf8arZpMpJ6ZRDw\"\n1 < Via: 1.1 vegur\n1 < Cache-Control: max-age=14400\n1 < CF-Cache-Status: HIT\n1 < Age: 865\n1 < Expect-CT: max-age=604800, report-uri=\"https:\/\/report-uri.cloudflare.com\/cdn-cgi\/beacon\/expect-ct\"\n1 < Report-To: {\"endpoints\":[{\"url\":\"https:\\\/\\\/a.nel.cloudflare.com\\\/report\\\/v3?s=Hmb4ZJs4Pbv1vz1wCvApmRdkWZ5blG4glysgeuUhrbXWs805lheX8t2xaOc9ud9met%2FHcSjwuIq8JLNyg8W%2F2EoBKs%2FHbBWIuux7HlXbUNHvfoTKMeXoIXlDO4c%3D\"}],\"group\":\"cf-nel\",\"max_age\":604800}\n1 < NEL: {\"success_fraction\":0,\"report_to\":\"cf-nel\",\"max_age\":604800}\n1 < Vary: Accept-Encoding\n1 < Server: cloudflare\n1 < CF-RAY: 7185514deb428e2c-LHR\n1 < alt-svc: h3=\":443\"; ma=86400, h3-29=\":443\"; ma=86400\n{\"page\":2,\"per_page\":6,\"total\":12,\"total_pages\":2,\"data\":[{\"id\":7,\"email\":\"michael.lawson@reqres.in\",\"first_name\":\"Michael\",\"last_name\":\"Lawson\",\"avatar\":\"https:\/\/reqres.in\/img\/faces\/7-image.jpg\"},{\"id\":8,\"email\":\"lindsay.ferguson@reqres.in\",\"first_name\":\"Lindsay\",\"last_name\":\"Ferguson\",\"avatar\":\"https:\/\/reqres.in\/img\/faces\/8-image.jpg\"},{\"id\":9,\"email\":\"tobias.funke@reqres.in\",\"first_name\":\"Tobias\",\"last_name\":\"Funke\",\"avatar\":\"https:\/\/reqres.in\/img\/faces\/9-image.jpg\"},{\"id\":10,\"email\":\"byron.fields@reqres.in\",\"first_name\":\"Byron\",\"last_name\":\"Fields\",\"avatar\":\"https:\/\/reqres.in\/img\/faces\/10-image.jpg\"},{\"id\":11,\"email\":\"george.edwards@reqres.in\",\"first_name\":\"George\",\"last_name\":\"Edwards\",\"avatar\":\"https:\/\/reqres.in\/img\/faces\/11-image.jpg\"},{\"id\":12,\"email\":\"rachel.howell@reqres.in\",\"first_name\":\"Rachel\",\"last_name\":\"Howell\",\"avatar\":\"https:\/\/reqres.in\/img\/faces\/12-image.jpg\"}],\"support\":{\"url\":\"https:\/\/reqres.in\/#support-heading\",\"text\":\"To keep ReqRes free, contributions towards server costs are appreciated!\"}}\n\n"},{"result":{"nanos":10200,"millis":0.0102,"status":"passed"},"step":{"line":35,"prefix":"Then","index":3,"text":"status 200"}},{"result":{"nanos":699600,"millis":0.6996,"status":"passed"},"step":{"line":36,"prefix":"And","index":4,"text":"print response"},"stepLog":"02:13:21.547 [print] {\n  \"page\": 2,\n  \"per_page\": 6,\n  \"total\": 12,\n  \"total_pages\": 2,\n  \"data\": [\n    {\n      \"id\": 7,\n      \"email\": \"michael.lawson@reqres.in\",\n      \"first_name\": \"Michael\",\n      \"last_name\": \"Lawson\",\n      \"avatar\": \"https:\/\/reqres.in\/img\/faces\/7-image.jpg\"\n    },\n    {\n      \"id\": 8,\n      \"email\": \"lindsay.ferguson@reqres.in\",\n      \"first_name\": \"Lindsay\",\n      \"last_name\": \"Ferguson\",\n      \"avatar\": \"https:\/\/reqres.in\/img\/faces\/8-image.jpg\"\n    },\n    {\n      \"id\": 9,\n      \"email\": \"tobias.funke@reqres.in\",\n      \"first_name\": \"Tobias\",\n      \"last_name\": \"Funke\",\n      \"avatar\": \"https:\/\/reqres.in\/img\/faces\/9-image.jpg\"\n    },\n    {\n      \"id\": 10,\n      \"email\": \"byron.fields@reqres.in\",\n      \"first_name\": \"Byron\",\n      \"last_name\": \"Fields\",\n      \"avatar\": \"https:\/\/reqres.in\/img\/faces\/10-image.jpg\"\n    },\n    {\n      \"id\": 11,\n      \"email\": \"george.edwards@reqres.in\",\n      \"first_name\": \"George\",\n      \"last_name\": \"Edwards\",\n      \"avatar\": \"https:\/\/reqres.in\/img\/faces\/11-image.jpg\"\n    },\n    {\n      \"id\": 12,\n      \"email\": \"rachel.howell@reqres.in\",\n      \"first_name\": \"Rachel\",\n      \"last_name\": \"Howell\",\n      \"avatar\": \"https:\/\/reqres.in\/img\/faces\/12-image.jpg\"\n    }\n  ],\n  \"support\": {\n    \"url\": \"https:\/\/reqres.in\/#support-heading\",\n    \"text\": \"To keep ReqRes free, contributions towards server costs are appreciated!\"\n  }\n}\n \n"},{"result":{"nanos":230700,"millis":0.2307,"status":"passed"},"step":{"line":37,"prefix":"And","index":5,"text":"print responseStatus"},"stepLog":"02:13:21.547 [print] 200 \n"},{"result":{"nanos":164700,"millis":0.1647,"status":"passed"},"step":{"line":38,"prefix":"And","index":6,"text":"print responseTime"},"stepLog":"02:13:21.547 [print] 214 \n"},{"result":{"nanos":401400,"millis":0.4014,"status":"passed"},"step":{"line":39,"prefix":"And","index":7,"text":"print responseHeaders"},"stepLog":"02:13:21.548 [print] {\n  \"Date\": [\n    \"Wed, 08 Jun 2022 23:13:21 GMT\"\n  ],\n  \"Content-Type\": [\n    \"application\/json; charset=utf-8\"\n  ],\n  \"Transfer-Encoding\": [\n    \"chunked\"\n  ],\n  \"Connection\": [\n    \"keep-alive\"\n  ],\n  \"X-Powered-By\": [\n    \"Express\"\n  ],\n  \"Access-Control-Allow-Origin\": [\n    \"*\"\n  ],\n  \"Etag\": [\n    \"W\/\\\"406-ut0vzoCuidvyMf8arZpMpJ6ZRDw\\\"\"\n  ],\n  \"Via\": [\n    \"1.1 vegur\"\n  ],\n  \"Cache-Control\": [\n    \"max-age=14400\"\n  ],\n  \"CF-Cache-Status\": [\n    \"HIT\"\n  ],\n  \"Age\": [\n    \"865\"\n  ],\n  \"Expect-CT\": [\n    \"max-age=604800, report-uri=\\\"https:\/\/report-uri.cloudflare.com\/cdn-cgi\/beacon\/expect-ct\\\"\"\n  ],\n  \"Report-To\": [\n    \"{\\\"endpoints\\\":[{\\\"url\\\":\\\"https:\\\\\/\\\\\/a.nel.cloudflare.com\\\\\/report\\\\\/v3?s=Hmb4ZJs4Pbv1vz1wCvApmRdkWZ5blG4glysgeuUhrbXWs805lheX8t2xaOc9ud9met%2FHcSjwuIq8JLNyg8W%2F2EoBKs%2FHbBWIuux7HlXbUNHvfoTKMeXoIXlDO4c%3D\\\"}],\\\"group\\\":\\\"cf-nel\\\",\\\"max_age\\\":604800}\"\n  ],\n  \"NEL\": [\n    \"{\\\"success_fraction\\\":0,\\\"report_to\\\":\\\"cf-nel\\\",\\\"max_age\\\":604800}\"\n  ],\n  \"Vary\": [\n    \"Accept-Encoding\"\n  ],\n  \"Server\": [\n    \"cloudflare\"\n  ],\n  \"CF-RAY\": [\n    \"7185514deb428e2c-LHR\"\n  ],\n  \"alt-svc\": [\n    \"h3=\\\":443\\\"; ma=86400, h3-29=\\\":443\\\"; ma=86400\"\n  ]\n}\n \n"},{"result":{"nanos":153600,"millis":0.1536,"status":"passed"},"step":{"line":40,"prefix":"And","index":8,"text":"print responseCookies"},"stepLog":"02:13:21.548 [print] null \n"}],"executorName":"main","line":31,"name":"Get Test 3","description":"","durationMillis":219.9186,"startTime":1654730001328,"failed":false,"refId":"[3:31]","endTime":1654730001548,"exampleIndex":-1}],"callDepth":0,"name":"Get API test","description":"","resultDate":"2022-06-09 02:13:21 ÖÖ","durationMillis":1165.8657,"passedCount":3}